<?xml version="1.0" standalone="no"?>
<!DOCTYPE svg PUBLIC "-//W3C//DTD SVG 20010904//EN"
 "http://www.w3.org/TR/2001/REC-SVG-20010904/DTD/svg10.dtd">
<svg version="1.0" xmlns="http://www.w3.org/2000/svg"
 width="225.000000pt" height="225.000000pt" viewBox="0 0 225.000000 225.000000"
 preserveAspectRatio="xMidYMid meet">

<g transform="translate(0.000000,225.000000) scale(0.100000,-0.100000)"
fill="#08c242" stroke="none">
<path d="M930 2181 c-249 -56 -446 -179 -605 -376 -124 -153 -191 -315 -221
-530 -15 -111 -16 -129 0 -245 18 -144 41 -222 96 -337 22 -45 40 -88 40 -95
0 -8 -40 -133 -89 -278 -49 -146 -87 -267 -85 -269 2 -3 32 5 67 17 34 11 150
48 257 82 107 33 205 65 218 70 18 8 37 4 85 -19 290 -135 615 -136 901 -2
118 55 204 116 301 216 139 141 230 303 277 493 31 124 31 360 0 483 -25 101
-85 246 -130 313 -18 26 -32 49 -32 51 0 7 -40 54 -105 123 -122 130 -280 226
-465 282 -95 29 -120 33 -265 36 -131 3 -175 0 -245 -15z m417 -127 c-3 -3
-12 -4 -19 -1 -8 3 -5 6 6 6 11 1 17 -2 13 -5z m-702 -22 c-3 -3 -11 0 -18 7
-9 10 -8 11 6 5 10 -3 15 -9 12 -12z m703 -21 c227 -47 473 -238 582 -451 144
-283 129 -630 -39 -885 -22 -33 -37 -63 -34 -68 2 -4 1 -6 -4 -5 -4 1 -35 -26
-68 -61 -112 -119 -274 -212 -427 -248 -42 -9 -75 -20 -73 -23 7 -12 -303 8
-355 23 -72 20 -163 57 -225 91 l-50 27 -163 -53 c-89 -30 -164 -52 -166 -50
-2 2 20 76 50 164 l54 161 -30 46 c-47 74 -89 175 -111 269 -18 74 -20 109
-16 237 4 135 7 159 35 239 17 50 28 94 25 100 -3 5 -1 6 4 3 6 -4 17 7 24 25
22 52 117 180 177 237 142 135 348 227 542 243 51 4 207 -8 268 -21z m-581
-17 c-3 -3 -12 -4 -19 -1 -8 3 -5 6 6 6 11 1 17 -2 13 -5z m-212 -44 c3 -6 -1
-7 -9 -4 -18 7 -21 14 -7 14 6 0 13 -4 16 -10z m-174 -157 c13 -16 12 -17 -3
-4 -10 7 -18 15 -18 17 0 8 8 3 21 -13z m-47 -213 c-6 -6 -10 -3 -10 10 0 13
4 16 10 10 7 -7 7 -13 0 -20z m60 -916 c3 -8 2 -12 -4 -9 -6 3 -10 10 -10 16
0 14 7 11 14 -7z m301 -304 c-3 -5 -12 -10 -18 -10 -7 0 -6 4 3 10 19 12 23
12 15 0z"/>
<path d="M745 1648 c-25 -14 -35 -29 -28 -42 3 -5 1 -6 -4 -3 -14 9 -37 -19
-28 -33 4 -6 1 -9 -5 -8 -7 2 -21 -14 -32 -35 -28 -53 -28 -170 1 -251 20 -55
112 -209 163 -273 58 -72 210 -214 223 -209 8 3 14 0 12 -6 -3 -15 123 -82
234 -123 123 -45 203 -48 276 -10 94 50 125 92 127 173 l1 55 -95 52 c-53 28
-111 57 -129 65 l-33 13 -68 -73 -67 -74 -44 19 c-83 36 -179 104 -241 171
-44 47 -118 164 -118 186 0 10 18 38 40 61 59 65 62 80 29 161 -16 38 -29 73
-29 78 0 5 -12 34 -26 64 l-25 54 -57 0 c-31 0 -66 -6 -77 -12z m-48 -372 c0
-15 -21 -16 -34 -1 -4 4 -3 5 4 1 6 -3 14 -2 18 4 8 14 12 13 12 -4z m-2 -35
c3 -5 2 -12 -3 -15 -5 -3 -9 1 -9 9 0 17 3 19 12 6z m135 -197 c0 -8 -19 -13
-24 -6 -3 5 1 9 9 9 8 0 15 -2 15 -3z m601 -107 c-10 -9 -11 -8 -5 6 3 10 9
15 12 12 3 -3 0 -11 -7 -18z m209 -201 c0 -2 -8 -10 -17 -17 -16 -13 -17 -12
-4 4 13 16 21 21 21 13z m-95 -46 c-3 -5 -11 -10 -16 -10 -6 0 -7 5 -4 10 3 6
11 10 16 10 6 0 7 -4 4 -10z"/>
</g>
</svg>
